Confirm Overlap — confirm_overlap • validata
…
    Value

    tibble. overlap summary or overlap table

    Examples

confirm_overlap(iris$Sepal.Width, iris$Sepal.Length) -> iris_overlap
#> # A tibble: 1 × 5
#>   only_in_iris_Sepal.Width only_in_iris_Sepal.Length shared_names total_names
#>                      <int>                     <int>        <int>       <int>
#> 1                       22                        34            1          57
#> # ℹ 1 more variable: pct_shared <chr>

iris_overlap
#> # A tibble: 57 × 4
#>        x iris_Sepal.Width iris_Sepal.Length both_flags
#>    <dbl>            <dbl>             <dbl>      <dbl>
#>  1   3.5                1                 0          1
#>  2   3                  1                 0          1
#>  3   3.2                1                 0          1
#>  4   3.1                1                 0          1
#>  5   3.6                1                 0          1
#>  6   3.9                1                 0          1
#>  7   3.4                1                 0          1
#>  8   2.9                1                 0          1
#>  9   3.7                1                 0          1
#> 10   4                  1                 0          1
#> # ℹ 47 more rows

iris_overlap %>%
co_find_only_in_1()
#> # A tibble: 22 × 1
#>    iris_Sepal.Width
#>               <dbl>
#>  1              3.5
#>  2              3  
#>  3              3.2
#>  4              3.1
#>  5              3.6
#>  6              3.9
#>  7              3.4
#>  8              2.9
#>  9              3.7
#> 10              4  
#> # ℹ 12 more rows

iris_overlap %>%
co_find_only_in_2()
#> # A tibble: 34 × 1
#>    iris_Sepal.Length
#>                <dbl>
#>  1               5.1
#>  2               4.9
#>  3               4.7
#>  4               4.6
#>  5               5  
#>  6               5.4
#>  7               4.8
#>  8               4.3
#>  9               5.8
#> 10               5.7
#> # ℹ 24 more rows
…
