PackageIntroduction • validata
…
Confirm Overlap

confirm_overlap is different from the other confirm functions in that it takes 2 vectors as arguments, instead of a data frame. This is to allow the user to test overlap between different dataframes, or arbitrary vectors if necessary

confirm_overlap(iris$Sepal.Width, iris$Petal.Length) -> iris_overlap
#> # A tibble: 1 × 5
#>   only_in_iris_Sepal.W… only_in_iris_Petal.… shared_names total_names pct_shared
#>                   <int>                <int>        <int>       <int> <chr>     
#> 1                    12                   32           11          55 20%

confirm_overlap returns a summary data frame invisibly allowing you to access individual elements using the helper functions.

print(iris_overlap)
#> # A tibble: 55 × 4
#>        x iris_Sepal.Width iris_Petal.Length both_flags
#>    <dbl>            <dbl>             <dbl>      <dbl>
#>  1   3.5                1                 1          2
#>  2   3                  1                 1          2
#>  3   3.2                1                 0          1
#>  4   3.1                1                 0          1
#>  5   3.6                1                 1          2
#>  6   3.9                1                 1          2
#>  7   3.4                1                 0          1
#>  8   2.9                1                 0          1
#>  9   3.7                1                 1          2
#> 10   4                  1                 1          2
#> # … with 45 more rows
…
