validata • validata
…
confirm_overlap(iris$Sepal.Width, iris$Petal.Length) -> iris_overlap
#> # A tibble: 1 × 5
#>   only_in_iris_Sepal.Width only_in_iris_Petal.Length shared_names total_names
#>                      <int>                     <int>        <int>       <int>
#> 1                       12                        32           11          55
#> # ℹ 1 more variable: pct_shared <chr>

confirm_overlap returns a summary data frame invisibly
allowing you to access individual elements using the helper
functions.

print(iris_overlap)
#> # A tibble: 55 × 4
#>        x iris_Sepal.Width iris_Petal.Length both_flags
#>    <dbl>            <dbl>             <dbl>      <dbl>
#>  1   3.5                1                 1          2
#>  2   3                  1                 1          2
#>  3   3.2                1                 0          1
#>  4   3.1                1                 0          1
#>  5   3.6                1                 1          2
#>  6   3.9                1                 1          2
#>  7   3.4                1                 0          1
#>  8   2.9                1                 0          1
#>  9   3.7                1                 1          2
#> 10   4                  1                 1          2
#> # ℹ 45 more rows
…
